<?xml version="1.0" encoding="UTF-8" standalone="no"?>
<!-- Created with Inkscape (http://www.inkscape.org/) -->

<svg

  

   xmlns:dc="http://purl.org/dc/elements/1.1/"
   xmlns:cc="http://creativecommons.org/ns#"
   xmlns:rdf="http://www.w3.org/1999/02/22-rdf-syntax-ns#"
   xmlns:svg="http://www.w3.org/2000/svg"
   xmlns="http://www.w3.org/2000/svg"
   xmlns:sodipodi="http://sodipodi.sourceforge.net/DTD/sodipodi-0.dtd"
   xmlns:inkscape="http://www.inkscape.org/namespaces/inkscape"
   version="1.1"
   id="svg3680"
   width="357.8092"
   height="136.56401"
   viewBox="0 0 357.8092 136.56402"
   sodipodi:docname="logo-stub.svg"
   inkscape:version="0.92.1 r15371">
  <metadata
     id="metadata3686">
    <rdf:RDF>
      <cc:Work
         rdf:about="">
        <dc:format>image/svg+xml</dc:format>
        <dc:type
           rdf:resource="http://purl.org/dc/dcmitype/StillImage" />
        <dc:title></dc:title>
      </cc:Work>
    </rdf:RDF>
  </metadata>
  <defs
     id="defs3684" />
  <sodipodi:namedview
     pagecolor="#ffffff"
     bordercolor="#666666"
     borderopacity="1"
     objecttolerance="10"
     gridtolerance="10"
     guidetolerance="10"
     inkscape:pageopacity="0"
     inkscape:pageshadow="2"
     inkscape:window-width="1920"
     inkscape:window-height="1017"
     id="namedview3682"
     showgrid="false"
     fit-margin-top="0"
     fit-margin-left="0"
     fit-margin-right="0"
     fit-margin-bottom="0"
     inkscape:zoom="1.2325419"
     inkscape:cx="43.589545"
     inkscape:cy="268.4362"
     inkscape:window-x="-8"
     inkscape:window-y="-8"
     inkscape:window-maximized="1"
     inkscape:current-layer="svg3680" />
  <path
     style="fill:#000000"
     d="m 54.308458,135.32599 c -3.85,-0.83052 -11.265221,-3.59563 -16.478268,-6.1447 C 30.070496,125.38697 26.880551,123.07525 20.237029,116.43173 3.7308271,99.925524 -3.1363777,77.629979 1.3365529,55.068134 2.2519862,50.45061 4.720458,43.560157 7.4933925,37.882027 c 3.7928485,-7.76661 6.0941965,-10.94372 12.7436365,-17.59316 6.643506,-6.64351 9.833485,-8.95525 17.593161,-12.7495792 17.170699,-8.39614007 34.822218,-9.79809 51.780514,-4.11262 11.450766,3.839 17.752336,7.8443692 27.311416,17.3595392 7.06617,7.03369 9.37303,10.14784 12.84042,17.33391 2.32471,4.8179 4.73902,11.455402 5.36513,14.749999 0.62611,3.294597 1.37293,5.987926 1.65959,5.985175 0.28666,-0.0027 1.59922,-3.60275 2.91679,-8 l 2.3956,-7.995004 h 4.38579 c 2.62059,0 4.55285,0.50311 4.80087,1.25 0.22829,0.6875 1.85577,5.882674 3.61662,11.544825 2.43659,7.835014 3.57833,10.222259 4.77843,9.991142 2.79531,-0.538328 4.0971,-4.981512 4.11236,-14.035962 l 0.0147,-8.750005 h 9.5 9.5 v 13.893016 c 0,11.426853 -0.26627,13.995187 -1.5,14.468615 -1.23472,0.473805 -1.5,3.057138 -1.5,14.606989 v 14.031387 h -3.15106 -3.15106 l 0.62024,-10.250002 0.62023,-10.25 -5.30305,10 -5.30305,10.000002 -4.16613,0.3075 -4.16612,0.3075 V 85.534421 c 0,-13.204907 -0.1582,-14.482235 -1.84834,-14.924219 -1.09682,-0.286824 -2.10314,-1.757331 -2.475,-3.616632 -0.58716,-2.935757 -0.90134,-3.133278 -4.98388,-3.133278 -4.10841,0 -4.41856,0.199862 -5.4314,3.5 -1.04762,3.413453 -1.006,3.5 1.683,3.5 8.94735,0 14.28628,6.766317 9.06635,11.490288 -1.97874,1.790739 -1.9761,1.812466 0.5,4.107238 3.35596,3.110194 3.20138,6.844209 -0.43381,10.479397 -2.71245,2.712449 -3.46489,2.923079 -10.4425,2.923079 h -7.51942 l -0.3075,-4.223253 -0.3075,-4.223251 -3.9039,7.973254 c -3.04933,6.227916 -5.78558,9.850126 -12.5,16.547346 -9.57025,9.54575 -15.83094,13.51643 -27.458361,17.41476 -10.03764,3.36533 -24.840504,4.19813 -35.137741,1.97684 z m 27.935637,-3.96967 c 18.120065,-3.83856 35.388805,-17.17277 43.383605,-33.499046 5.40264,-11.032796 7.18076,-18.336904 7.18076,-29.496982 0,-11.160078 -1.77812,-18.464186 -7.18076,-29.496985 C 117.6329,22.537037 100.36416,9.2028278 82.244095,5.3642678 47.388594,-2.0195322 13.141816,19.908207 5.4137375,54.557697 -4.7484847,100.12087 36.247773,141.1002 82.244095,131.35632 Z m -25.935637,-5.90984 c -9.994257,-2.31755 -17.405076,-5.57599 -21.464576,-9.4377 -4.947902,-4.70683 -5.736642,-8.69049 -3.296288,-16.648486 l 1.839928,-6.000002 12.753341,-0.280197 12.753341,-0.280197 2.003921,4.530197 2.003922,4.530205 h 7.953205 c 4.374263,0 7.953206,-0.37374 7.953206,-0.83054 0,-0.4568 -5.4,-15.364392 -12,-33.127991 -6.6,-17.763599 -12,-32.464862 -12,-32.669462 0,-0.20461 -3.573442,-0.37202 -7.940983,-0.37202 -5.229385,0 -8.217237,0.42454 -8.75,1.24328 -0.444959,0.68379 -5.596469,14.064123 -11.447799,29.734059 L 16.030894,94.328419 14.339187,90.344356 C 9.671269,79.351154 8.744792,66.339112 11.783903,54.456303 14.583746,43.509017 19.173068,35.492237 27.349612,27.265577 43.760058,10.754558 68.004248,5.6010978 90.200353,13.905727 c 7.205506,2.69593 14.365457,7.58466 16.143167,11.02236 2.57045,4.9707 1.67319,9.43195 -5.97496,29.708123 -4.091955,10.848245 -7.842017,20.811271 -8.333478,22.140057 -0.765059,2.068527 -1.795913,-0.01676 -7.168025,-14.5 -3.450953,-9.303786 -7.158224,-19.27848 -8.238379,-22.16598 l -1.963918,-5.25 h -7.928151 c -5.67938,0 -7.926276,0.35456 -7.921539,1.25 0.0036,0.6875 5.353985,15.650005 11.889664,33.250005 l 11.883053,32.000008 8.440615,0.28646 8.440612,0.28646 10.800276,-29.105922 c 5.94015,-16.00825 11.13171,-28.737161 11.5368,-28.286461 4.23845,4.715594 6.3341,27.511392 3.52275,38.319455 -4.97932,19.142758 -19.68044,34.767998 -38.520382,40.941798 -8.406371,2.75474 -22.447153,3.51174 -30.5,1.64439 z M 39.052908,77.610292 c 5.521186,-15.054677 7.176562,-18.749078 7.856567,-17.533975 0.732987,1.309773 6.898983,17.822225 6.898983,18.475378 0,0.169729 -3.423145,0.308597 -7.606989,0.308597 -5.663419,0 -7.489861,-0.319372 -7.148561,-1.25 z M 145.8742,94.825108 c 2.90735,-1.555966 2.52524,-5.789627 -0.63084,-6.989567 -4.71504,-1.792655 -5.4349,-1.325798 -5.4349,3.524751 0,3.88107 0.28412,4.5 2.06574,4.5 1.13616,0 2.93616,-0.465833 4,-1.035184 z m 29.08727,-23.71508 c 1.65953,-0.433977 1.84699,-1.638344 1.84699,-11.866367 V 47.860287 h -3.5 -3.5 v 7.032124 c 0,8.111388 -1.74177,13.097351 -5.41647,15.50511 -2.50078,1.638569 -2.58251,2.017427 -2.55176,11.827781 l 0.0318,10.13499 5.62124,-10.383632 c 3.32151,-6.135534 6.37687,-10.581235 7.46823,-10.866632 z m -29.01393,10.124397 c 2.56194,-2.318523 0.75713,-5.374133 -3.17426,-5.374133 -2.7217,0 -2.96482,0.287008 -2.96482,3.5 0,2.925355 0.35649,3.5 2.17126,3.5 1.19419,0 2.97971,-0.73164 3.96782,-1.625867 z m 2.24922,-27.124133 c -0.77878,-2.6125 -1.54319,-5.150356 -1.69869,-5.639679 -0.1555,-0.489324 -0.98911,1.648176 -1.85245,4.75 l -1.56973,5.639679 h 3.26842 3.26841 z m 134.99571,49.750008 -0.63963,-4.000006 h -9.87219 -9.87219 v -14.500002 -14.5 h 3 3 v 12 12 h 4.96826 4.96827 l 0.28173,-11.75 0.28174,-11.75 3.25,-0.313358 3.25,-0.313359 v 12.063359 c 0,9.940434 0.25839,12.063358 1.46826,12.063358 1.19173,0 1.52133,-2.213018 1.75,-11.75 l 0.28174,-11.75 3.20073,-0.309684 3.20074,-0.309684 0.29926,6.28772 0.29927,6.287719 4,-6.219289 c 3.75087,-5.831941 4.23723,-6.219834 7.80902,-6.228036 4.33908,-0.01 4.31314,0.115058 -1.47892,7.130034 -2.10655,2.55133 -3.8301,4.961566 -3.8301,5.35608 0,0.394515 1.09242,1.5766 2.42761,2.626857 1.33518,1.050256 2.96927,3.59002 3.63131,5.64392 0.66204,2.0539 1.46022,4.175491 1.77374,4.714648 0.31351,0.539156 2.40571,-4.860844 4.64933,-12 l 4.07932,-12.980285 4.15919,-0.304559 4.1592,-0.304558 4.20848,13.304558 4.20848,13.304559 1.43959,-3.5 c 0.79177,-1.925 2.30744,-4.436892 3.36814,-5.581981 1.91251,-2.064667 1.90785,-2.091413 -0.56033,-3.215992 -1.36889,-0.623705 -2.78341,-2.307498 -3.14339,-3.74176 -1.49561,-5.959011 4.09226,-10.460267 12.98542,-10.460267 7.84987,0 7.61391,-0.468178 7.61391,15.106989 v 13.893013 h -3 c -2.97404,0 -3,-0.0482 -3,-5.566424 0,-5.482503 -0.0415,-5.561652 -2.75,-5.25 -2.29503,0.264072 -3.08089,1.183165 -4.75,5.555304 l -2,5.23888 -6.17245,0.0111 c -6.17088,0.0111 -6.17274,0.0102 -7.32755,-3.488882 -1.08613,-3.290997 -1.41649,-3.5 -5.53224,-3.5 -4.22082,0 -4.40087,0.126528 -5.0418,3.542969 l -0.66466,3.542973 -6.52385,-0.29297 -6.52384,-0.29297 -1.32145,-4.487564 c -1.30619,-4.435761 -3.54146,-7.012438 -6.08329,-7.012438 -0.93306,0 -1.30887,1.722737 -1.30887,6 v 6.000002 h -3.5 c -3.0351,0 -3.5,0.321206 -3.5,2.418216 0,3.72294 -1.03075,5.58179 -3.09517,5.58179 -1.42146,0 -2.03751,-0.97755 -2.52082,-4 z m 43.27836,-17.437462 c -0.30338,-0.7906 -1.09931,-3.3781 -1.76873,-5.75 l -1.21714,-4.312546 -1.2614,4 c -2.05242,6.508406 -1.82873,7.5 1.69189,7.5 2.29084,0 2.96209,-0.377592 2.55538,-1.437454 z m 25.33763,-6.562546 c 0,-3.563924 -0.26363,-4 -2.41821,-4 -3.85897,0 -5.58179,1.05157 -5.58179,3.406989 0,2.971411 1.8359,4.593011 5.2,4.593011 2.6,0 2.8,-0.285714 2.8,-4 z m -169,5.5 c 0,-12.222222 0.23563,-14.5 1.5,-14.5 1.2619,0 1.5,-2.222222 1.5,-14 V 42.860287 h 9 c 8.93333,0 9,0.0185 9,2.5 0,2.38889 -0.26667,2.5 -6,2.5 h -6 v 3.000005 c 0,2.969697 0.0556,3 5.5,3 5.16869,0 5.5,0.147449 5.5,2.44774 0,2.247781 -0.42888,2.472433 -5.25,2.75 -5.11969,0.294758 -5.25778,0.382927 -5.56336,3.55226 l -0.31336,3.25 h 6.06336 c 5.80092,0 6.06336,0.108208 6.06336,2.5 0,1.375 0.45,2.5 1,2.5 0.61905,0 1,-5.333333 1,-14 V 42.860287 h 2.94774 c 2.85096,0 2.95767,0.17238 3.25,5.250005 l 0.30226,5.25 5.25,0.30226 5.25,0.302259 v -5.552259 -5.552265 h 3.5 3.5 l 0.0789,14.250005 c 0.0434,7.8375 0.24091,13.8 0.43887,13.25 0.19796,-0.55 2.20678,-6.9625 4.46405,-14.25 l 4.10418,-13.250005 h 4.3232 4.32319 l 3.05461,9.750005 c 1.68003,5.3625 3.61147,11.6625 4.29209,14 0.87749,3.013629 1.77326,4.25 3.0792,4.25 1.70427,0 1.84171,1.082072 1.84171,14.5 v 14.500002 h -3 -3 l -0.0127,-9.750002 -0.0127,-9.75 -2.85412,5.626825 c -6.85485,13.514297 -7.14729,13.873177 -11.30462,13.873177 h -3.81586 V 85.276959 c 0,-11.221532 -0.28815,-14.487581 -1.25,-14.167962 -0.90362,0.30027 -1.32689,4.341421 -1.52746,14.583334 l -0.27745,14.167963 H 229.781 c -2.96644,0 -2.97254,-0.0123 -2.97254,-6.000002 v -6 h -5.5 -5.5 v 6 6.000002 h -3.5 -3.5 V 85.360292 c 0,-9 -0.37931,-14.5 -1,-14.5 -0.62069,0 -1,5.5 -1,14.5 v 14.500002 h -3.5 -3.5 v -6.000002 -6 h -5.5 -5.5 v 6 6.000002 h -3 -3 z m 70,-14.161351 c 0,-0.186257 -0.84992,-0.338649 -1.88871,-0.338649 -1.36679,0 -2.07015,-0.967176 -2.54531,-3.5 -0.63109,-3.363976 -0.82593,-3.5 -5.01347,-3.5 -3.98776,0 -4.44986,0.266789 -5.45468,3.149223 -1.41678,4.064176 -1.49449,3.850777 1.40217,3.850777 h 2.5 l 0.0215,10.75 0.0215,10.75 5.47854,-10.411351 c 3.01312,-5.726242 5.47846,-10.563742 5.47846,-10.75 z m -53,5.109091 v -5.552259 l -5.25,0.302259 -5.25,0.30226 -0.30226,5.25 -0.30226,5.25 h 5.55226 5.55226 z m 27,0.05226 c 0,-4.833333 -0.24242,-5.5 -2,-5.5 -1.77778,0 -2,-0.666667 -2,-6 v -6 h -5.5 -5.5 v 6 c 0,5.333333 0.22222,6 2,6 1.75758,0 2,0.666667 2,5.5 v 5.5 h 5.5 5.5 z m 18.98071,-18.25 c -0.0106,-0.4125 -0.62018,-3 -1.3546,-5.75 l -1.33532,-5.000005 -1.20078,4.312551 c -0.66043,2.3719 -1.449,4.9594 -1.75238,5.75 -0.40671,1.059862 0.26454,1.437454 2.55538,1.437454 1.70885,0 3.09831,-0.3375 3.0877,-0.75 z"
     id="path3690"
     inkscape:connector-curvature="0" />
</svg>
